{
    "/api/appointment-token/create-appointment": "/api/appointment-token-create-appointment",
    "/api/appointment-token/availability": "/api/appointment-token-availability",
    "/api/*": "/$1"
}
